Lösungen
…
Wir könnten diese Aufgabe durch einfaches Abschätzen oder Ausprobieren lösen, indem wir die vorhergesagten Änderungen in Y für verschiedene Punktepaare (x1,x2)(x_1,x_2) berechnen, wobei bei jedem Punktepaar der X-Abstand 1 beträgt. Anders gesagt könnten wir die Steigung der Ogive an verschiedenen Stellen berechnen.

preds_df <- 
  tibble(
    mpg = 10:30,
    y_logits = predict(m1, newdata = tibble(mpg = mpg)),
    y_pr = invlogit(y_logits),
    y_lag = lag(y_pr),
    y_diff = y_pr - y_lag
  )

preds_df %>% 
  select(mpg, y_diff)

## # A tibble: 21 × 2
##      mpg   y_diff
##    <int>    <dbl>
##  1    10 NA      
##  2    11  0.00894
##  3    12  0.0121 
##  4    13  0.0162 
##  5    14  0.0215 
##  6    15  0.0281 
##  7    16  0.0360 
##  8    17  0.0452 
##  9    18  0.0551 
## 10    19  0.0647 
## # … with 11 more rows
…
… einmal mit der Y-Achse skaliert in Wahrscheinlichkeiten.

Um die Ungewissheit zu visualisieren, müssen wir die Stichproben aus der Post-Verteilung visualisieren.

Dabei hlefen die Pakete tidybayes und modelr:

library(tidybayes)
library(modelr)  # für `data_grid()`

Zuerst erstellen wir ein “Grid” mit den Prädiktorwerten, für die wir eine Vorhersage wollen:

Jetzt fügen wir die Stichproben aus der Post-Verteilung von m1 hinzu, gleich in der Wskt-Skalierung. Das ging doch mit posterior_epred()…

## # A tibble: 300 × 7
## # Groups:   mpg, cyl_f, .row [30]
##      mpg cyl_f  .row .chain .iteration .draw   .epred
##    <dbl> <fct> <int>  <int>      <int> <int>    <dbl>
##  1  10.4 4         1     NA         NA     1 0.00572 
##  2  10.4 4         1     NA         NA     2 0.0691  
##  3  10.4 4         1     NA         NA     3 0.0610  
##  4  10.4 4         1     NA         NA     4 0.337   
##  5  10.4 4         1     NA         NA     5 0.499   
##  6  10.4 4         1     NA         NA     6 0.263   
##  7  10.4 4         1     NA         NA     7 0.00156 
##  8  10.4 4         1     NA         NA     8 0.0468  
##  9  10.4 4         1     NA         NA     9 0.00153 
## 10  10.4 4         1     NA         NA    10 0.000643
## # … with 290 more rows
…
